^C:\Users\PSIK1\Desktop\emptyTest1_TCP\emptyTest1\emptyTest1.vcxproj
C:\Users\PSIK1\Desktop\emptyTest1_TCP\x64\Release\ClassLibrary1.dll
C:\Users\PSIK1\Desktop\emptyTest1_TCP\x64\Release\MySql.Data.dll
C:\Users\PSIK1\Desktop\emptyTest1_TCP\x64\Release\Polaczenie.dll
C:\Users\PSIK1\Desktop\emptyTest1_TCP\x64\Release\ClassLibrary1.pdb
C:\Users\PSIK1\Desktop\emptyTest1_TCP\x64\Release\Polaczenie.pdb
