^C:\USERS\PSIK1\APPDATA\LOCAL\TEMP\.NETFRAMEWORK,VERSION=V4.6.ASSEMBLYATTRIBUTES.CPP
C:\USERS\PSIK1\APPDATA\LOCAL\TEMP\.NETFRAMEWORK,VERSION=V4.6.ASSEMBLYATTRIBUTES.CPP
C:\WINDOWS\GLOBALIZATION\SORTING\SORTDEFAULT.NLS
C:\PROGRAM FILES (X86)\MICROSOFT VISUAL STUDIO 14.0\VC\BIN\1033\CLUI.DLL
C:\WINDOWS\MICROSOFT.NET\FRAMEWORK\V2.0.50727\MSCORWKS.DLL
C:\WINDOWS\MICROSOFT.NET\FRAMEWORK\V4.0.30319\CLR.DLL
C:\PROGRAM FILES (X86)\MICROSOFT VISUAL STUDIO 14.0\VC\BIN\CL.EXE.CONFIG
C:\WINDOWS\SYSTEM32\TZRES.DLL
C:\WINDOWS\MICROSOFT.NET\FRAMEWORK\V4.0.30319\MSCORLIB.DLL
^C:\USERS\PSIK1\DESKTOP\EMPTYTEST1_TCP\EMPTYTEST1\KALIBRACJA.CPP
C:\USERS\PSIK1\DESKTOP\EMPTYTEST1_TCP\EMPTYTEST1\KALIBRACJA.CPP
C:\PROGRAM FILES (X86)\MICROSOFT VISUAL STUDIO 14.0\VC\BIN\CL.EXE.CONFIG
C:\WINDOWS\MICROSOFT.NET\FRAMEWORK\V4.0.30319\CLR.DLL
C:\PROGRAM FILES (X86)\REFERENCE ASSEMBLIES\MICROSOFT\FRAMEWORK\.NETFRAMEWORK\V4.6\MSCORLIB.DLL
C:\Users\PSIK1\Desktop\emptyTest1_TCP\emptyTest1\Debug\emptyTest1.tlog\MYSQL.DATA.DLL.metagen
C:\Users\PSIK1\Desktop\emptyTest1_TCP\emptyTest1\Debug\emptyTest1.tlog\NPGSQL.DLL.metagen
C:\PROGRAM FILES (X86)\REFERENCE ASSEMBLIES\MICROSOFT\FRAMEWORK\.NETFRAMEWORK\V4.6\SYSTEM.DATA.DLL
C:\PROGRAM FILES (X86)\REFERENCE ASSEMBLIES\MICROSOFT\FRAMEWORK\.NETFRAMEWORK\V4.6\SYSTEM.DIRECTORYSERVICES.ACCOUNTMANAGEMENT.DLL
C:\PROGRAM FILES (X86)\REFERENCE ASSEMBLIES\MICROSOFT\FRAMEWORK\.NETFRAMEWORK\V4.6\SYSTEM.DLL
C:\PROGRAM FILES (X86)\REFERENCE ASSEMBLIES\MICROSOFT\FRAMEWORK\.NETFRAMEWORK\V4.6\SYSTEM.DRAWING.DLL
C:\PROGRAM FILES (X86)\REFERENCE ASSEMBLIES\MICROSOFT\FRAMEWORK\.NETFRAMEWORK\V4.6\SYSTEM.WINDOWS.FORMS.DATAVISUALIZATION.DLL
C:\PROGRAM FILES (X86)\REFERENCE ASSEMBLIES\MICROSOFT\FRAMEWORK\.NETFRAMEWORK\V4.6\SYSTEM.WINDOWS.FORMS.DLL
C:\PROGRAM FILES (X86)\REFERENCE ASSEMBLIES\MICROSOFT\FRAMEWORK\.NETFRAMEWORK\V4.6\SYSTEM.XML.DLL
C:\USERS\PSIK1\DESKTOP\EMPTYTEST1_TCP\EMPTYTEST1\KALIBRACJA.H
C:\USERS\PSIK1\DESKTOP\EMPTYTEST1_TCP\EMPTYTEST1\PORTSZEREGOWY.H
C:\USERS\PSIK1\DOCUMENTS\VISUAL STUDIO 2015\PROJECTS\CLASSLIBRARY1\DEBUG\CLASSLIBRARY1.DLL.metagen
^C:\USERS\PSIK1\DESKTOP\EMPTYTEST1_TCP\EMPTYTEST1\KOMENTARZFORM.CPP
C:\USERS\PSIK1\DESKTOP\EMPTYTEST1_TCP\EMPTYTEST1\KOMENTARZFORM.CPP
C:\PROGRAM FILES (X86)\MICROSOFT VISUAL STUDIO 14.0\VC\BIN\CL.EXE.CONFIG
C:\PROGRAM FILES (X86)\REFERENCE ASSEMBLIES\MICROSOFT\FRAMEWORK\.NETFRAMEWORK\V4.6\MSCORLIB.DLL
C:\Users\PSIK1\Desktop\emptyTest1_TCP\emptyTest1\Debug\emptyTest1.tlog\MYSQL.DATA.DLL.metagen
C:\Users\PSIK1\Desktop\emptyTest1_TCP\emptyTest1\Debug\emptyTest1.tlog\NPGSQL.DLL.metagen
C:\PROGRAM FILES (X86)\REFERENCE ASSEMBLIES\MICROSOFT\FRAMEWORK\.NETFRAMEWORK\V4.6\SYSTEM.DATA.DLL
C:\PROGRAM FILES (X86)\REFERENCE ASSEMBLIES\MICROSOFT\FRAMEWORK\.NETFRAMEWORK\V4.6\SYSTEM.DIRECTORYSERVICES.ACCOUNTMANAGEMENT.DLL
C:\PROGRAM FILES (X86)\REFERENCE ASSEMBLIES\MICROSOFT\FRAMEWORK\.NETFRAMEWORK\V4.6\SYSTEM.DLL
C:\PROGRAM FILES (X86)\REFERENCE ASSEMBLIES\MICROSOFT\FRAMEWORK\.NETFRAMEWORK\V4.6\SYSTEM.DRAWING.DLL
C:\PROGRAM FILES (X86)\REFERENCE ASSEMBLIES\MICROSOFT\FRAMEWORK\.NETFRAMEWORK\V4.6\SYSTEM.WINDOWS.FORMS.DATAVISUALIZATION.DLL
C:\PROGRAM FILES (X86)\REFERENCE ASSEMBLIES\MICROSOFT\FRAMEWORK\.NETFRAMEWORK\V4.6\SYSTEM.WINDOWS.FORMS.DLL
C:\PROGRAM FILES (X86)\REFERENCE ASSEMBLIES\MICROSOFT\FRAMEWORK\.NETFRAMEWORK\V4.6\SYSTEM.XML.DLL
C:\USERS\PSIK1\DESKTOP\EMPTYTEST1_TCP\EMPTYTEST1\KOMENTARZFORM.H
C:\USERS\PSIK1\DOCUMENTS\VISUAL STUDIO 2015\PROJECTS\CLASSLIBRARY1\DEBUG\CLASSLIBRARY1.DLL.metagen
^C:\USERS\PSIK1\DESKTOP\EMPTYTEST1_TCP\EMPTYTEST1\MYFORM1.CPP
C:\USERS\PSIK1\DESKTOP\EMPTYTEST1_TCP\EMPTYTEST1\MYFORM1.CPP
C:\PROGRAM FILES (X86)\MICROSOFT VISUAL STUDIO 14.0\VC\BIN\CL.EXE.CONFIG
C:\PROGRAM FILES (X86)\REFERENCE ASSEMBLIES\MICROSOFT\FRAMEWORK\.NETFRAMEWORK\V4.6\MSCORLIB.DLL
C:\Users\PSIK1\Desktop\emptyTest1_TCP\emptyTest1\Debug\emptyTest1.tlog\MYSQL.DATA.DLL.metagen
C:\Users\PSIK1\Desktop\emptyTest1_TCP\emptyTest1\Debug\emptyTest1.tlog\NPGSQL.DLL.metagen
C:\PROGRAM FILES (X86)\REFERENCE ASSEMBLIES\MICROSOFT\FRAMEWORK\.NETFRAMEWORK\V4.6\SYSTEM.DATA.DLL
C:\PROGRAM FILES (X86)\REFERENCE ASSEMBLIES\MICROSOFT\FRAMEWORK\.NETFRAMEWORK\V4.6\SYSTEM.DIRECTORYSERVICES.ACCOUNTMANAGEMENT.DLL
C:\PROGRAM FILES (X86)\REFERENCE ASSEMBLIES\MICROSOFT\FRAMEWORK\.NETFRAMEWORK\V4.6\SYSTEM.DLL
C:\PROGRAM FILES (X86)\REFERENCE ASSEMBLIES\MICROSOFT\FRAMEWORK\.NETFRAMEWORK\V4.6\SYSTEM.DRAWING.DLL
C:\PROGRAM FILES (X86)\REFERENCE ASSEMBLIES\MICROSOFT\FRAMEWORK\.NETFRAMEWORK\V4.6\SYSTEM.WINDOWS.FORMS.DATAVISUALIZATION.DLL
C:\PROGRAM FILES (X86)\REFERENCE ASSEMBLIES\MICROSOFT\FRAMEWORK\.NETFRAMEWORK\V4.6\SYSTEM.WINDOWS.FORMS.DLL
C:\PROGRAM FILES (X86)\REFERENCE ASSEMBLIES\MICROSOFT\FRAMEWORK\.NETFRAMEWORK\V4.6\SYSTEM.XML.DLL
C:\USERS\PSIK1\DESKTOP\EMPTYTEST1_TCP\EMPTYTEST1\MYFORM1.H
C:\USERS\PSIK1\DOCUMENTS\VISUAL STUDIO 2015\PROJECTS\CLASSLIBRARY1\DEBUG\CLASSLIBRARY1.DLL.metagen
^C:\USERS\PSIK1\DESKTOP\EMPTYTEST1_TCP\EMPTYTEST1\OBROBKAFORM.CPP
C:\USERS\PSIK1\DESKTOP\EMPTYTEST1_TCP\EMPTYTEST1\OBROBKAFORM.CPP
C:\PROGRAM FILES (X86)\MICROSOFT VISUAL STUDIO 14.0\VC\BIN\CL.EXE.CONFIG
C:\PROGRAM FILES (X86)\REFERENCE ASSEMBLIES\MICROSOFT\FRAMEWORK\.NETFRAMEWORK\V4.6\MSCORLIB.DLL
C:\Users\PSIK1\Desktop\emptyTest1_TCP\emptyTest1\Debug\emptyTest1.tlog\MYSQL.DATA.DLL.metagen
C:\Users\PSIK1\Desktop\emptyTest1_TCP\emptyTest1\Debug\emptyTest1.tlog\NPGSQL.DLL.metagen
C:\PROGRAM FILES (X86)\REFERENCE ASSEMBLIES\MICROSOFT\FRAMEWORK\.NETFRAMEWORK\V4.6\SYSTEM.DATA.DLL
C:\PROGRAM FILES (X86)\REFERENCE ASSEMBLIES\MICROSOFT\FRAMEWORK\.NETFRAMEWORK\V4.6\SYSTEM.DIRECTORYSERVICES.ACCOUNTMANAGEMENT.DLL
C:\PROGRAM FILES (X86)\REFERENCE ASSEMBLIES\MICROSOFT\FRAMEWORK\.NETFRAMEWORK\V4.6\SYSTEM.DLL
C:\PROGRAM FILES (X86)\REFERENCE ASSEMBLIES\MICROSOFT\FRAMEWORK\.NETFRAMEWORK\V4.6\SYSTEM.DRAWING.DLL
C:\PROGRAM FILES (X86)\REFERENCE ASSEMBLIES\MICROSOFT\FRAMEWORK\.NETFRAMEWORK\V4.6\SYSTEM.WINDOWS.FORMS.DATAVISUALIZATION.DLL
C:\PROGRAM FILES (X86)\REFERENCE ASSEMBLIES\MICROSOFT\FRAMEWORK\.NETFRAMEWORK\V4.6\SYSTEM.WINDOWS.FORMS.DLL
C:\PROGRAM FILES (X86)\REFERENCE ASSEMBLIES\MICROSOFT\FRAMEWORK\.NETFRAMEWORK\V4.6\SYSTEM.XML.DLL
C:\USERS\PSIK1\DESKTOP\EMPTYTEST1_TCP\EMPTYTEST1\OBROBKAFORM.H
C:\USERS\PSIK1\DESKTOP\EMPTYTEST1_TCP\EMPTYTEST1\SERVERTCP.H
C:\USERS\PSIK1\DOCUMENTS\VISUAL STUDIO 2015\PROJECTS\CLASSLIBRARY1\DEBUG\CLASSLIBRARY1.DLL.metagen
^C:\USERS\PSIK1\DESKTOP\EMPTYTEST1_TCP\EMPTYTEST1\PORTSZEREGOWY.CPP
C:\USERS\PSIK1\DESKTOP\EMPTYTEST1_TCP\EMPTYTEST1\PORTSZEREGOWY.CPP
C:\PROGRAM FILES (X86)\MICROSOFT VISUAL STUDIO 14.0\VC\BIN\CL.EXE.CONFIG
C:\PROGRAM FILES (X86)\REFERENCE ASSEMBLIES\MICROSOFT\FRAMEWORK\.NETFRAMEWORK\V4.6\MSCORLIB.DLL
C:\Users\PSIK1\Desktop\emptyTest1_TCP\emptyTest1\Debug\emptyTest1.tlog\MYSQL.DATA.DLL.metagen
C:\Users\PSIK1\Desktop\emptyTest1_TCP\emptyTest1\Debug\emptyTest1.tlog\NPGSQL.DLL.metagen
C:\PROGRAM FILES (X86)\REFERENCE ASSEMBLIES\MICROSOFT\FRAMEWORK\.NETFRAMEWORK\V4.6\SYSTEM.DATA.DLL
C:\PROGRAM FILES (X86)\REFERENCE ASSEMBLIES\MICROSOFT\FRAMEWORK\.NETFRAMEWORK\V4.6\SYSTEM.DIRECTORYSERVICES.ACCOUNTMANAGEMENT.DLL
C:\PROGRAM FILES (X86)\REFERENCE ASSEMBLIES\MICROSOFT\FRAMEWORK\.NETFRAMEWORK\V4.6\SYSTEM.DLL
C:\PROGRAM FILES (X86)\REFERENCE ASSEMBLIES\MICROSOFT\FRAMEWORK\.NETFRAMEWORK\V4.6\SYSTEM.DRAWING.DLL
C:\PROGRAM FILES (X86)\REFERENCE ASSEMBLIES\MICROSOFT\FRAMEWORK\.NETFRAMEWORK\V4.6\SYSTEM.WINDOWS.FORMS.DATAVISUALIZATION.DLL
C:\PROGRAM FILES (X86)\REFERENCE ASSEMBLIES\MICROSOFT\FRAMEWORK\.NETFRAMEWORK\V4.6\SYSTEM.WINDOWS.FORMS.DLL
C:\PROGRAM FILES (X86)\REFERENCE ASSEMBLIES\MICROSOFT\FRAMEWORK\.NETFRAMEWORK\V4.6\SYSTEM.XML.DLL
C:\USERS\PSIK1\DESKTOP\EMPTYTEST1_TCP\EMPTYTEST1\PORTSZEREGOWY.H
C:\USERS\PSIK1\DOCUMENTS\VISUAL STUDIO 2015\PROJECTS\CLASSLIBRARY1\DEBUG\CLASSLIBRARY1.DLL.metagen
^C:\USERS\PSIK1\DESKTOP\EMPTYTEST1_TCP\EMPTYTEST1\USTAWIENIA.CPP
C:\USERS\PSIK1\DESKTOP\EMPTYTEST1_TCP\EMPTYTEST1\USTAWIENIA.CPP
C:\PROGRAM FILES (X86)\MICROSOFT VISUAL STUDIO 14.0\VC\BIN\CL.EXE.CONFIG
C:\PROGRAM FILES (X86)\REFERENCE ASSEMBLIES\MICROSOFT\FRAMEWORK\.NETFRAMEWORK\V4.6\MSCORLIB.DLL
C:\Users\PSIK1\Desktop\emptyTest1_TCP\emptyTest1\Debug\emptyTest1.tlog\MYSQL.DATA.DLL.metagen
C:\Users\PSIK1\Desktop\emptyTest1_TCP\emptyTest1\Debug\emptyTest1.tlog\NPGSQL.DLL.metagen
C:\PROGRAM FILES (X86)\REFERENCE ASSEMBLIES\MICROSOFT\FRAMEWORK\.NETFRAMEWORK\V4.6\SYSTEM.DATA.DLL
C:\PROGRAM FILES (X86)\REFERENCE ASSEMBLIES\MICROSOFT\FRAMEWORK\.NETFRAMEWORK\V4.6\SYSTEM.DIRECTORYSERVICES.ACCOUNTMANAGEMENT.DLL
C:\PROGRAM FILES (X86)\REFERENCE ASSEMBLIES\MICROSOFT\FRAMEWORK\.NETFRAMEWORK\V4.6\SYSTEM.DLL
C:\PROGRAM FILES (X86)\REFERENCE ASSEMBLIES\MICROSOFT\FRAMEWORK\.NETFRAMEWORK\V4.6\SYSTEM.DRAWING.DLL
C:\PROGRAM FILES (X86)\REFERENCE ASSEMBLIES\MICROSOFT\FRAMEWORK\.NETFRAMEWORK\V4.6\SYSTEM.WINDOWS.FORMS.DATAVISUALIZATION.DLL
C:\PROGRAM FILES (X86)\REFERENCE ASSEMBLIES\MICROSOFT\FRAMEWORK\.NETFRAMEWORK\V4.6\SYSTEM.WINDOWS.FORMS.DLL
C:\PROGRAM FILES (X86)\REFERENCE ASSEMBLIES\MICROSOFT\FRAMEWORK\.NETFRAMEWORK\V4.6\SYSTEM.XML.DLL
C:\USERS\PSIK1\DESKTOP\EMPTYTEST1_TCP\EMPTYTEST1\USTAWIENIA.H
C:\USERS\PSIK1\DESKTOP\EMPTYTEST1_TCP\EMPTYTEST1\USTAWIENIASUW.H
C:\USERS\PSIK1\DESKTOP\EMPTYTEST1_TCP\EMPTYTEST1\PORTSZEREGOWY.H
C:\USERS\PSIK1\DESKTOP\EMPTYTEST1_TCP\EMPTYTEST1\KALIBRACJA.H
C:\USERS\PSIK1\DOCUMENTS\VISUAL STUDIO 2015\PROJECTS\CLASSLIBRARY1\DEBUG\CLASSLIBRARY1.DLL.metagen
^C:\USERS\PSIK1\DESKTOP\EMPTYTEST1_TCP\EMPTYTEST1\USTAWIENIASUW.CPP
C:\USERS\PSIK1\DESKTOP\EMPTYTEST1_TCP\EMPTYTEST1\USTAWIENIASUW.CPP
C:\PROGRAM FILES (X86)\MICROSOFT VISUAL STUDIO 14.0\VC\BIN\CL.EXE.CONFIG
C:\PROGRAM FILES (X86)\REFERENCE ASSEMBLIES\MICROSOFT\FRAMEWORK\.NETFRAMEWORK\V4.6\MSCORLIB.DLL
C:\Users\PSIK1\Desktop\emptyTest1_TCP\emptyTest1\Debug\emptyTest1.tlog\MYSQL.DATA.DLL.metagen
C:\Users\PSIK1\Desktop\emptyTest1_TCP\emptyTest1\Debug\emptyTest1.tlog\NPGSQL.DLL.metagen
C:\PROGRAM FILES (X86)\REFERENCE ASSEMBLIES\MICROSOFT\FRAMEWORK\.NETFRAMEWORK\V4.6\SYSTEM.DATA.DLL
C:\PROGRAM FILES (X86)\REFERENCE ASSEMBLIES\MICROSOFT\FRAMEWORK\.NETFRAMEWORK\V4.6\SYSTEM.DIRECTORYSERVICES.ACCOUNTMANAGEMENT.DLL
C:\PROGRAM FILES (X86)\REFERENCE ASSEMBLIES\MICROSOFT\FRAMEWORK\.NETFRAMEWORK\V4.6\SYSTEM.DLL
C:\PROGRAM FILES (X86)\REFERENCE ASSEMBLIES\MICROSOFT\FRAMEWORK\.NETFRAMEWORK\V4.6\SYSTEM.DRAWING.DLL
C:\PROGRAM FILES (X86)\REFERENCE ASSEMBLIES\MICROSOFT\FRAMEWORK\.NETFRAMEWORK\V4.6\SYSTEM.WINDOWS.FORMS.DATAVISUALIZATION.DLL
C:\PROGRAM FILES (X86)\REFERENCE ASSEMBLIES\MICROSOFT\FRAMEWORK\.NETFRAMEWORK\V4.6\SYSTEM.WINDOWS.FORMS.DLL
C:\PROGRAM FILES (X86)\REFERENCE ASSEMBLIES\MICROSOFT\FRAMEWORK\.NETFRAMEWORK\V4.6\SYSTEM.XML.DLL
C:\USERS\PSIK1\DESKTOP\EMPTYTEST1_TCP\EMPTYTEST1\USTAWIENIASUW.H
C:\USERS\PSIK1\DESKTOP\EMPTYTEST1_TCP\EMPTYTEST1\PORTSZEREGOWY.H
C:\USERS\PSIK1\DOCUMENTS\VISUAL STUDIO 2015\PROJECTS\CLASSLIBRARY1\DEBUG\CLASSLIBRARY1.DLL.metagen
^C:\USERS\PSIK1\DESKTOP\EMPTYTEST1_TCP\EMPTYTEST1\WYMIAR.CPP
C:\USERS\PSIK1\DESKTOP\EMPTYTEST1_TCP\EMPTYTEST1\WYMIAR.CPP
C:\PROGRAM FILES (X86)\MICROSOFT VISUAL STUDIO 14.0\VC\BIN\CL.EXE.CONFIG
C:\PROGRAM FILES (X86)\REFERENCE ASSEMBLIES\MICROSOFT\FRAMEWORK\.NETFRAMEWORK\V4.6\MSCORLIB.DLL
C:\Users\PSIK1\Desktop\emptyTest1_TCP\emptyTest1\Debug\emptyTest1.tlog\MYSQL.DATA.DLL.metagen
C:\Users\PSIK1\Desktop\emptyTest1_TCP\emptyTest1\Debug\emptyTest1.tlog\NPGSQL.DLL.metagen
C:\PROGRAM FILES (X86)\REFERENCE ASSEMBLIES\MICROSOFT\FRAMEWORK\.NETFRAMEWORK\V4.6\SYSTEM.DATA.DLL
C:\PROGRAM FILES (X86)\REFERENCE ASSEMBLIES\MICROSOFT\FRAMEWORK\.NETFRAMEWORK\V4.6\SYSTEM.DIRECTORYSERVICES.ACCOUNTMANAGEMENT.DLL
C:\PROGRAM FILES (X86)\REFERENCE ASSEMBLIES\MICROSOFT\FRAMEWORK\.NETFRAMEWORK\V4.6\SYSTEM.DLL
C:\PROGRAM FILES (X86)\REFERENCE ASSEMBLIES\MICROSOFT\FRAMEWORK\.NETFRAMEWORK\V4.6\SYSTEM.DRAWING.DLL
C:\PROGRAM FILES (X86)\REFERENCE ASSEMBLIES\MICROSOFT\FRAMEWORK\.NETFRAMEWORK\V4.6\SYSTEM.WINDOWS.FORMS.DATAVISUALIZATION.DLL
C:\PROGRAM FILES (X86)\REFERENCE ASSEMBLIES\MICROSOFT\FRAMEWORK\.NETFRAMEWORK\V4.6\SYSTEM.WINDOWS.FORMS.DLL
C:\PROGRAM FILES (X86)\REFERENCE ASSEMBLIES\MICROSOFT\FRAMEWORK\.NETFRAMEWORK\V4.6\SYSTEM.XML.DLL
C:\USERS\PSIK1\DESKTOP\EMPTYTEST1_TCP\EMPTYTEST1\WYMIAR.H
C:\USERS\PSIK1\DOCUMENTS\VISUAL STUDIO 2015\PROJECTS\CLASSLIBRARY1\DEBUG\CLASSLIBRARY1.DLL.metagen
^C:\USERS\PSIK1\DESKTOP\EMPTYTEST1_TCP\EMPTYTEST1\OBRAZEKFORM.CPP
C:\USERS\PSIK1\DESKTOP\EMPTYTEST1_TCP\EMPTYTEST1\OBRAZEKFORM.CPP
C:\PROGRAM FILES (X86)\MICROSOFT VISUAL STUDIO 14.0\VC\BIN\CL.EXE.CONFIG
C:\PROGRAM FILES (X86)\REFERENCE ASSEMBLIES\MICROSOFT\FRAMEWORK\.NETFRAMEWORK\V4.6\MSCORLIB.DLL
C:\Users\PSIK1\Desktop\emptyTest1_TCP\emptyTest1\Debug\emptyTest1.tlog\MYSQL.DATA.DLL.metagen
C:\Users\PSIK1\Desktop\emptyTest1_TCP\emptyTest1\Debug\emptyTest1.tlog\NPGSQL.DLL.metagen
C:\PROGRAM FILES (X86)\REFERENCE ASSEMBLIES\MICROSOFT\FRAMEWORK\.NETFRAMEWORK\V4.6\SYSTEM.DATA.DLL
C:\PROGRAM FILES (X86)\REFERENCE ASSEMBLIES\MICROSOFT\FRAMEWORK\.NETFRAMEWORK\V4.6\SYSTEM.DIRECTORYSERVICES.ACCOUNTMANAGEMENT.DLL
C:\PROGRAM FILES (X86)\REFERENCE ASSEMBLIES\MICROSOFT\FRAMEWORK\.NETFRAMEWORK\V4.6\SYSTEM.DLL
C:\PROGRAM FILES (X86)\REFERENCE ASSEMBLIES\MICROSOFT\FRAMEWORK\.NETFRAMEWORK\V4.6\SYSTEM.DRAWING.DLL
C:\PROGRAM FILES (X86)\REFERENCE ASSEMBLIES\MICROSOFT\FRAMEWORK\.NETFRAMEWORK\V4.6\SYSTEM.WINDOWS.FORMS.DATAVISUALIZATION.DLL
C:\PROGRAM FILES (X86)\REFERENCE ASSEMBLIES\MICROSOFT\FRAMEWORK\.NETFRAMEWORK\V4.6\SYSTEM.WINDOWS.FORMS.DLL
C:\PROGRAM FILES (X86)\REFERENCE ASSEMBLIES\MICROSOFT\FRAMEWORK\.NETFRAMEWORK\V4.6\SYSTEM.XML.DLL
C:\USERS\PSIK1\DESKTOP\EMPTYTEST1_TCP\EMPTYTEST1\OBRAZEKFORM.H
C:\USERS\PSIK1\DOCUMENTS\VISUAL STUDIO 2015\PROJECTS\CLASSLIBRARY1\DEBUG\CLASSLIBRARY1.DLL.metagen
^C:\USERS\PSIK1\DESKTOP\EMPTYTEST1_TCP\EMPTYTEST1\LOGOWANIE.CPP
C:\USERS\PSIK1\DESKTOP\EMPTYTEST1_TCP\EMPTYTEST1\LOGOWANIE.CPP
C:\PROGRAM FILES (X86)\MICROSOFT VISUAL STUDIO 14.0\VC\BIN\CL.EXE.CONFIG
C:\PROGRAM FILES (X86)\REFERENCE ASSEMBLIES\MICROSOFT\FRAMEWORK\.NETFRAMEWORK\V4.6\MSCORLIB.DLL
C:\Users\PSIK1\Desktop\emptyTest1_TCP\emptyTest1\Debug\emptyTest1.tlog\MYSQL.DATA.DLL.metagen
C:\Users\PSIK1\Desktop\emptyTest1_TCP\emptyTest1\Debug\emptyTest1.tlog\NPGSQL.DLL.metagen
C:\PROGRAM FILES (X86)\REFERENCE ASSEMBLIES\MICROSOFT\FRAMEWORK\.NETFRAMEWORK\V4.6\SYSTEM.DATA.DLL
C:\PROGRAM FILES (X86)\REFERENCE ASSEMBLIES\MICROSOFT\FRAMEWORK\.NETFRAMEWORK\V4.6\SYSTEM.DIRECTORYSERVICES.ACCOUNTMANAGEMENT.DLL
C:\PROGRAM FILES (X86)\REFERENCE ASSEMBLIES\MICROSOFT\FRAMEWORK\.NETFRAMEWORK\V4.6\SYSTEM.DLL
C:\PROGRAM FILES (X86)\REFERENCE ASSEMBLIES\MICROSOFT\FRAMEWORK\.NETFRAMEWORK\V4.6\SYSTEM.DRAWING.DLL
C:\PROGRAM FILES (X86)\REFERENCE ASSEMBLIES\MICROSOFT\FRAMEWORK\.NETFRAMEWORK\V4.6\SYSTEM.WINDOWS.FORMS.DATAVISUALIZATION.DLL
C:\PROGRAM FILES (X86)\REFERENCE ASSEMBLIES\MICROSOFT\FRAMEWORK\.NETFRAMEWORK\V4.6\SYSTEM.WINDOWS.FORMS.DLL
C:\PROGRAM FILES (X86)\REFERENCE ASSEMBLIES\MICROSOFT\FRAMEWORK\.NETFRAMEWORK\V4.6\SYSTEM.XML.DLL
C:\USERS\PSIK1\DESKTOP\EMPTYTEST1_TCP\EMPTYTEST1\LOGOWANIE.H
C:\USERS\PSIK1\DESKTOP\EMPTYTEST1_TCP\EMPTYTEST1\HEADER_FORM.H
C:\USERS\PSIK1\DOCUMENTS\VISUAL STUDIO 2015\PROJECTS\CLASSLIBRARY1\DEBUG\CLASSLIBRARY1.DLL.metagen
^C:\USERS\PSIK1\DESKTOP\EMPTYTEST1_TCP\EMPTYTEST1\LOGOWANIE1.CPP
C:\USERS\PSIK1\DESKTOP\EMPTYTEST1_TCP\EMPTYTEST1\LOGOWANIE1.CPP
C:\PROGRAM FILES (X86)\MICROSOFT VISUAL STUDIO 14.0\VC\BIN\CL.EXE.CONFIG
C:\PROGRAM FILES (X86)\REFERENCE ASSEMBLIES\MICROSOFT\FRAMEWORK\.NETFRAMEWORK\V4.6\MSCORLIB.DLL
C:\Users\PSIK1\Desktop\emptyTest1_TCP\emptyTest1\Debug\emptyTest1.tlog\MYSQL.DATA.DLL.metagen
C:\Users\PSIK1\Desktop\emptyTest1_TCP\emptyTest1\Debug\emptyTest1.tlog\NPGSQL.DLL.metagen
C:\PROGRAM FILES (X86)\REFERENCE ASSEMBLIES\MICROSOFT\FRAMEWORK\.NETFRAMEWORK\V4.6\SYSTEM.DATA.DLL
C:\PROGRAM FILES (X86)\REFERENCE ASSEMBLIES\MICROSOFT\FRAMEWORK\.NETFRAMEWORK\V4.6\SYSTEM.DIRECTORYSERVICES.ACCOUNTMANAGEMENT.DLL
C:\PROGRAM FILES (X86)\REFERENCE ASSEMBLIES\MICROSOFT\FRAMEWORK\.NETFRAMEWORK\V4.6\SYSTEM.DLL
C:\PROGRAM FILES (X86)\REFERENCE ASSEMBLIES\MICROSOFT\FRAMEWORK\.NETFRAMEWORK\V4.6\SYSTEM.DRAWING.DLL
C:\PROGRAM FILES (X86)\REFERENCE ASSEMBLIES\MICROSOFT\FRAMEWORK\.NETFRAMEWORK\V4.6\SYSTEM.WINDOWS.FORMS.DATAVISUALIZATION.DLL
C:\PROGRAM FILES (X86)\REFERENCE ASSEMBLIES\MICROSOFT\FRAMEWORK\.NETFRAMEWORK\V4.6\SYSTEM.WINDOWS.FORMS.DLL
C:\PROGRAM FILES (X86)\REFERENCE ASSEMBLIES\MICROSOFT\FRAMEWORK\.NETFRAMEWORK\V4.6\SYSTEM.XML.DLL
C:\USERS\PSIK1\DESKTOP\EMPTYTEST1_TCP\EMPTYTEST1\LOGOWANIE.H
C:\USERS\PSIK1\DESKTOP\EMPTYTEST1_TCP\EMPTYTEST1\HEADER_FORM.H
C:\USERS\PSIK1\DOCUMENTS\VISUAL STUDIO 2015\PROJECTS\CLASSLIBRARY1\DEBUG\CLASSLIBRARY1.DLL.metagen
^C:\USERS\PSIK1\DESKTOP\EMPTYTEST1_TCP\EMPTYTEST1\POMIARYFORM.CPP
C:\USERS\PSIK1\DESKTOP\EMPTYTEST1_TCP\EMPTYTEST1\POMIARYFORM.CPP
C:\PROGRAM FILES (X86)\MICROSOFT VISUAL STUDIO 14.0\VC\BIN\CL.EXE.CONFIG
C:\PROGRAM FILES (X86)\REFERENCE ASSEMBLIES\MICROSOFT\FRAMEWORK\.NETFRAMEWORK\V4.6\MSCORLIB.DLL
C:\Users\PSIK1\Desktop\emptyTest1_TCP\emptyTest1\Debug\emptyTest1.tlog\MYSQL.DATA.DLL.metagen
C:\Users\PSIK1\Desktop\emptyTest1_TCP\emptyTest1\Debug\emptyTest1.tlog\NPGSQL.DLL.metagen
C:\PROGRAM FILES (X86)\REFERENCE ASSEMBLIES\MICROSOFT\FRAMEWORK\.NETFRAMEWORK\V4.6\SYSTEM.DATA.DLL
C:\PROGRAM FILES (X86)\REFERENCE ASSEMBLIES\MICROSOFT\FRAMEWORK\.NETFRAMEWORK\V4.6\SYSTEM.DIRECTORYSERVICES.ACCOUNTMANAGEMENT.DLL
C:\PROGRAM FILES (X86)\REFERENCE ASSEMBLIES\MICROSOFT\FRAMEWORK\.NETFRAMEWORK\V4.6\SYSTEM.DLL
C:\PROGRAM FILES (X86)\REFERENCE ASSEMBLIES\MICROSOFT\FRAMEWORK\.NETFRAMEWORK\V4.6\SYSTEM.DRAWING.DLL
C:\PROGRAM FILES (X86)\REFERENCE ASSEMBLIES\MICROSOFT\FRAMEWORK\.NETFRAMEWORK\V4.6\SYSTEM.WINDOWS.FORMS.DATAVISUALIZATION.DLL
C:\PROGRAM FILES (X86)\REFERENCE ASSEMBLIES\MICROSOFT\FRAMEWORK\.NETFRAMEWORK\V4.6\SYSTEM.WINDOWS.FORMS.DLL
C:\PROGRAM FILES (X86)\REFERENCE ASSEMBLIES\MICROSOFT\FRAMEWORK\.NETFRAMEWORK\V4.6\SYSTEM.XML.DLL
C:\USERS\PSIK1\DESKTOP\EMPTYTEST1_TCP\EMPTYTEST1\POMIARYFORM.H
C:\USERS\PSIK1\DESKTOP\EMPTYTEST1_TCP\EMPTYTEST1\OBRAZEKFORM.H
C:\USERS\PSIK1\DESKTOP\EMPTYTEST1_TCP\EMPTYTEST1\HEADER_FORM.H
C:\USERS\PSIK1\DOCUMENTS\VISUAL STUDIO 2015\PROJECTS\CLASSLIBRARY1\DEBUG\CLASSLIBRARY1.DLL.metagen
^C:\USERS\PSIK1\DESKTOP\EMPTYTEST1_TCP\EMPTYTEST1\MYFORM.CPP
C:\USERS\PSIK1\DESKTOP\EMPTYTEST1_TCP\EMPTYTEST1\MYFORM.CPP
C:\PROGRAM FILES (X86)\MICROSOFT VISUAL STUDIO 14.0\VC\BIN\CL.EXE.CONFIG
C:\WINDOWS\MICROSOFT.NET\FRAMEWORK\V4.0.30319\CLR.DLL
C:\PROGRAM FILES (X86)\REFERENCE ASSEMBLIES\MICROSOFT\FRAMEWORK\.NETFRAMEWORK\V4.6\MSCORLIB.DLL
C:\Users\PSIK1\Desktop\emptyTest1_TCP\emptyTest1\Debug\emptyTest1.tlog\MYSQL.DATA.DLL.metagen
C:\Users\PSIK1\Desktop\emptyTest1_TCP\emptyTest1\Debug\emptyTest1.tlog\NPGSQL.DLL.metagen
C:\PROGRAM FILES (X86)\REFERENCE ASSEMBLIES\MICROSOFT\FRAMEWORK\.NETFRAMEWORK\V4.6\SYSTEM.DATA.DLL
C:\PROGRAM FILES (X86)\REFERENCE ASSEMBLIES\MICROSOFT\FRAMEWORK\.NETFRAMEWORK\V4.6\SYSTEM.DIRECTORYSERVICES.ACCOUNTMANAGEMENT.DLL
C:\PROGRAM FILES (X86)\REFERENCE ASSEMBLIES\MICROSOFT\FRAMEWORK\.NETFRAMEWORK\V4.6\SYSTEM.DLL
C:\PROGRAM FILES (X86)\REFERENCE ASSEMBLIES\MICROSOFT\FRAMEWORK\.NETFRAMEWORK\V4.6\SYSTEM.DRAWING.DLL
C:\PROGRAM FILES (X86)\REFERENCE ASSEMBLIES\MICROSOFT\FRAMEWORK\.NETFRAMEWORK\V4.6\SYSTEM.WINDOWS.FORMS.DATAVISUALIZATION.DLL
C:\PROGRAM FILES (X86)\REFERENCE ASSEMBLIES\MICROSOFT\FRAMEWORK\.NETFRAMEWORK\V4.6\SYSTEM.WINDOWS.FORMS.DLL
C:\PROGRAM FILES (X86)\REFERENCE ASSEMBLIES\MICROSOFT\FRAMEWORK\.NETFRAMEWORK\V4.6\SYSTEM.XML.DLL
C:\USERS\PSIK1\DESKTOP\EMPTYTEST1_TCP\EMPTYTEST1\MYFORM.H
C:\USERS\PSIK1\DESKTOP\EMPTYTEST1_TCP\EMPTYTEST1\MYFORM1.H
C:\USERS\PSIK1\DESKTOP\EMPTYTEST1_TCP\EMPTYTEST1\OBROBKAFORM.H
C:\USERS\PSIK1\DESKTOP\EMPTYTEST1_TCP\EMPTYTEST1\SERVERTCP.H
C:\USERS\PSIK1\DESKTOP\EMPTYTEST1_TCP\EMPTYTEST1\POMIARYFORM.H
C:\USERS\PSIK1\DESKTOP\EMPTYTEST1_TCP\EMPTYTEST1\OBRAZEKFORM.H
C:\USERS\PSIK1\DESKTOP\EMPTYTEST1_TCP\EMPTYTEST1\HEADER_FORM.H
C:\USERS\PSIK1\DESKTOP\EMPTYTEST1_TCP\EMPTYTEST1\KOMENTARZFORM.H
C:\USERS\PSIK1\DESKTOP\EMPTYTEST1_TCP\EMPTYTEST1\USTAWIENIA.H
C:\USERS\PSIK1\DESKTOP\EMPTYTEST1_TCP\EMPTYTEST1\USTAWIENIASUW.H
C:\USERS\PSIK1\DESKTOP\EMPTYTEST1_TCP\EMPTYTEST1\PORTSZEREGOWY.H
C:\USERS\PSIK1\DESKTOP\EMPTYTEST1_TCP\EMPTYTEST1\KALIBRACJA.H
C:\USERS\PSIK1\DESKTOP\EMPTYTEST1_TCP\EMPTYTEST1\WYMIAR.H
C:\USERS\PSIK1\DOCUMENTS\VISUAL STUDIO 2015\PROJECTS\CLASSLIBRARY1\DEBUG\CLASSLIBRARY1.DLL.metagen
^C:\USERS\PSIK1\DESKTOP\EMPTYTEST1_TCP\EMPTYTEST1\MYFORM2.CPP
C:\USERS\PSIK1\DESKTOP\EMPTYTEST1_TCP\EMPTYTEST1\MYFORM2.CPP
C:\PROGRAM FILES (X86)\MICROSOFT VISUAL STUDIO 14.0\VC\BIN\CL.EXE.CONFIG
C:\PROGRAM FILES (X86)\REFERENCE ASSEMBLIES\MICROSOFT\FRAMEWORK\.NETFRAMEWORK\V4.6\MSCORLIB.DLL
C:\Users\PSIK1\Desktop\emptyTest1_TCP\emptyTest1\Debug\emptyTest1.tlog\MYSQL.DATA.DLL.metagen
C:\Users\PSIK1\Desktop\emptyTest1_TCP\emptyTest1\Debug\emptyTest1.tlog\NPGSQL.DLL.metagen
C:\PROGRAM FILES (X86)\REFERENCE ASSEMBLIES\MICROSOFT\FRAMEWORK\.NETFRAMEWORK\V4.6\SYSTEM.DATA.DLL
C:\PROGRAM FILES (X86)\REFERENCE ASSEMBLIES\MICROSOFT\FRAMEWORK\.NETFRAMEWORK\V4.6\SYSTEM.DIRECTORYSERVICES.ACCOUNTMANAGEMENT.DLL
C:\PROGRAM FILES (X86)\REFERENCE ASSEMBLIES\MICROSOFT\FRAMEWORK\.NETFRAMEWORK\V4.6\SYSTEM.DLL
C:\PROGRAM FILES (X86)\REFERENCE ASSEMBLIES\MICROSOFT\FRAMEWORK\.NETFRAMEWORK\V4.6\SYSTEM.DRAWING.DLL
C:\PROGRAM FILES (X86)\REFERENCE ASSEMBLIES\MICROSOFT\FRAMEWORK\.NETFRAMEWORK\V4.6\SYSTEM.WINDOWS.FORMS.DATAVISUALIZATION.DLL
C:\PROGRAM FILES (X86)\REFERENCE ASSEMBLIES\MICROSOFT\FRAMEWORK\.NETFRAMEWORK\V4.6\SYSTEM.WINDOWS.FORMS.DLL
C:\PROGRAM FILES (X86)\REFERENCE ASSEMBLIES\MICROSOFT\FRAMEWORK\.NETFRAMEWORK\V4.6\SYSTEM.XML.DLL
C:\USERS\PSIK1\DESKTOP\EMPTYTEST1_TCP\EMPTYTEST1\MYFORM2.H
C:\USERS\PSIK1\DESKTOP\EMPTYTEST1_TCP\EMPTYTEST1\HEADER_FORM.H
C:\USERS\PSIK1\DESKTOP\EMPTYTEST1_TCP\EMPTYTEST1\LOGOWANIE.H
C:\USERS\PSIK1\DESKTOP\EMPTYTEST1_TCP\EMPTYTEST1\MYFORM.H
C:\USERS\PSIK1\DESKTOP\EMPTYTEST1_TCP\EMPTYTEST1\MYFORM1.H
C:\USERS\PSIK1\DESKTOP\EMPTYTEST1_TCP\EMPTYTEST1\OBROBKAFORM.H
C:\USERS\PSIK1\DESKTOP\EMPTYTEST1_TCP\EMPTYTEST1\SERVERTCP.H
C:\USERS\PSIK1\DESKTOP\EMPTYTEST1_TCP\EMPTYTEST1\POMIARYFORM.H
C:\USERS\PSIK1\DESKTOP\EMPTYTEST1_TCP\EMPTYTEST1\OBRAZEKFORM.H
C:\USERS\PSIK1\DESKTOP\EMPTYTEST1_TCP\EMPTYTEST1\KOMENTARZFORM.H
C:\USERS\PSIK1\DESKTOP\EMPTYTEST1_TCP\EMPTYTEST1\USTAWIENIA.H
C:\USERS\PSIK1\DESKTOP\EMPTYTEST1_TCP\EMPTYTEST1\USTAWIENIASUW.H
C:\USERS\PSIK1\DESKTOP\EMPTYTEST1_TCP\EMPTYTEST1\PORTSZEREGOWY.H
C:\USERS\PSIK1\DESKTOP\EMPTYTEST1_TCP\EMPTYTEST1\KALIBRACJA.H
C:\USERS\PSIK1\DESKTOP\EMPTYTEST1_TCP\EMPTYTEST1\WYMIAR.H
C:\USERS\PSIK1\DOCUMENTS\VISUAL STUDIO 2015\PROJECTS\CLASSLIBRARY1\DEBUG\CLASSLIBRARY1.DLL.metagen
^C:\USERS\PSIK1\DESKTOP\EMPTYTEST1_TCP\EMPTYTEST1\MAIN.CPP
C:\USERS\PSIK1\DESKTOP\EMPTYTEST1_TCP\EMPTYTEST1\MAIN.CPP
C:\PROGRAM FILES (X86)\MICROSOFT VISUAL STUDIO 14.0\VC\BIN\CL.EXE.CONFIG
C:\PROGRAM FILES (X86)\REFERENCE ASSEMBLIES\MICROSOFT\FRAMEWORK\.NETFRAMEWORK\V4.6\MSCORLIB.DLL
C:\Users\PSIK1\Desktop\emptyTest1_TCP\emptyTest1\Debug\emptyTest1.tlog\MYSQL.DATA.DLL.metagen
C:\Users\PSIK1\Desktop\emptyTest1_TCP\emptyTest1\Debug\emptyTest1.tlog\NPGSQL.DLL.metagen
C:\PROGRAM FILES (X86)\REFERENCE ASSEMBLIES\MICROSOFT\FRAMEWORK\.NETFRAMEWORK\V4.6\SYSTEM.DATA.DLL
C:\PROGRAM FILES (X86)\REFERENCE ASSEMBLIES\MICROSOFT\FRAMEWORK\.NETFRAMEWORK\V4.6\SYSTEM.DIRECTORYSERVICES.ACCOUNTMANAGEMENT.DLL
C:\PROGRAM FILES (X86)\REFERENCE ASSEMBLIES\MICROSOFT\FRAMEWORK\.NETFRAMEWORK\V4.6\SYSTEM.DLL
C:\PROGRAM FILES (X86)\REFERENCE ASSEMBLIES\MICROSOFT\FRAMEWORK\.NETFRAMEWORK\V4.6\SYSTEM.DRAWING.DLL
C:\PROGRAM FILES (X86)\REFERENCE ASSEMBLIES\MICROSOFT\FRAMEWORK\.NETFRAMEWORK\V4.6\SYSTEM.WINDOWS.FORMS.DATAVISUALIZATION.DLL
C:\PROGRAM FILES (X86)\REFERENCE ASSEMBLIES\MICROSOFT\FRAMEWORK\.NETFRAMEWORK\V4.6\SYSTEM.WINDOWS.FORMS.DLL
C:\PROGRAM FILES (X86)\REFERENCE ASSEMBLIES\MICROSOFT\FRAMEWORK\.NETFRAMEWORK\V4.6\SYSTEM.XML.DLL
C:\USERS\PSIK1\DESKTOP\EMPTYTEST1_TCP\EMPTYTEST1\MYFORM.H
C:\USERS\PSIK1\DESKTOP\EMPTYTEST1_TCP\EMPTYTEST1\MYFORM1.H
C:\USERS\PSIK1\DESKTOP\EMPTYTEST1_TCP\EMPTYTEST1\OBROBKAFORM.H
C:\USERS\PSIK1\DESKTOP\EMPTYTEST1_TCP\EMPTYTEST1\SERVERTCP.H
C:\USERS\PSIK1\DESKTOP\EMPTYTEST1_TCP\EMPTYTEST1\POMIARYFORM.H
C:\USERS\PSIK1\DESKTOP\EMPTYTEST1_TCP\EMPTYTEST1\OBRAZEKFORM.H
C:\USERS\PSIK1\DESKTOP\EMPTYTEST1_TCP\EMPTYTEST1\HEADER_FORM.H
C:\USERS\PSIK1\DESKTOP\EMPTYTEST1_TCP\EMPTYTEST1\KOMENTARZFORM.H
C:\USERS\PSIK1\DESKTOP\EMPTYTEST1_TCP\EMPTYTEST1\USTAWIENIA.H
C:\USERS\PSIK1\DESKTOP\EMPTYTEST1_TCP\EMPTYTEST1\USTAWIENIASUW.H
C:\USERS\PSIK1\DESKTOP\EMPTYTEST1_TCP\EMPTYTEST1\PORTSZEREGOWY.H
C:\USERS\PSIK1\DESKTOP\EMPTYTEST1_TCP\EMPTYTEST1\KALIBRACJA.H
C:\USERS\PSIK1\DESKTOP\EMPTYTEST1_TCP\EMPTYTEST1\WYMIAR.H
C:\USERS\PSIK1\DESKTOP\EMPTYTEST1_TCP\EMPTYTEST1\MYFORM2.H
C:\USERS\PSIK1\DESKTOP\EMPTYTEST1_TCP\EMPTYTEST1\LOGOWANIE.H
C:\USERS\PSIK1\DOCUMENTS\VISUAL STUDIO 2015\PROJECTS\CLASSLIBRARY1\DEBUG\CLASSLIBRARY1.DLL.metagen
