^C:\Users\tomek\Desktop\emptyTest1\emptyTest1\emptyTest1.vcxproj
C:\Users\tomek\Desktop\emptyTest1\x64\Debug\Npgsql.dll
C:\Users\tomek\Desktop\emptyTest1\x64\Debug\Mono.Security.dll
C:\Users\tomek\Desktop\emptyTest1\x64\Debug\Npgsql.pdb
C:\Users\tomek\Desktop\emptyTest1\x64\Debug\Npgsql.xml
C:\Users\tomek\Desktop\emptyTest1\x64\Debug\de\Npgsql.resources.dll
C:\Users\tomek\Desktop\emptyTest1\x64\Debug\es\Npgsql.resources.dll
C:\Users\tomek\Desktop\emptyTest1\x64\Debug\fi\Npgsql.resources.dll
C:\Users\tomek\Desktop\emptyTest1\x64\Debug\fr\Npgsql.resources.dll
C:\Users\tomek\Desktop\emptyTest1\x64\Debug\ja\Npgsql.resources.dll
C:\Users\tomek\Desktop\emptyTest1\x64\Debug\zh-CN\Npgsql.resources.dll
^C:\Users\tomek\Desktop\emptyTest1\emptyTest1\emptyTest1.vcxproj
C:\Users\tomek\Desktop\emptyTest1\emptyTest1\x64\Debug\emptyTest1.MyForm.resources
C:\Users\tomek\Desktop\emptyTest1\emptyTest1\x64\Debug\emptyTest1.MyForm1.resources
C:\Users\tomek\Desktop\emptyTest1\emptyTest1\x64\Debug\emptyTest1.MyForm2.resources
